<?xml version="1.0" encoding="UTF-8" standalone="no"?>
<svg
   xmlns:dc="http://purl.org/dc/elements/1.1/"
   xmlns:cc="http://creativecommons.org/ns#"
   xmlns:rdf="http://www.w3.org/1999/02/22-rdf-syntax-ns#"
   xmlns:svg="http://www.w3.org/2000/svg"
   xmlns="http://www.w3.org/2000/svg"
   xmlns:sodipodi="http://sodipodi.sourceforge.net/DTD/sodipodi-0.dtd"
   xmlns:inkscape="http://www.inkscape.org/namespaces/inkscape"
   width="40"
   height="40"
   version="1.1"
   viewBox="0 0 40 40"
   id="svg14"
   sodipodi:docname="1.svg"
   inkscape:version="0.92.4 (5da689c313, 2019-01-14)">
  <defs
     id="defs18" />
  <sodipodi:namedview
     pagecolor="#ffffff"
     bordercolor="#666666"
     borderopacity="1"
     objecttolerance="10"
     gridtolerance="10"
     guidetolerance="10"
     inkscape:pageopacity="0"
     inkscape:pageshadow="2"
     inkscape:window-width="1920"
     inkscape:window-height="1001"
     id="namedview16"
     showgrid="false"
     inkscape:zoom="5.9"
     inkscape:cx="20"
     inkscape:cy="20"
     inkscape:window-x="-9"
     inkscape:window-y="1341"
     inkscape:window-maximized="1"
     inkscape:current-layer="svg14" />
  <metadata
     id="metadata2">
    <rdf:RDF>
      <cc:Work
         rdf:about="">
        <dc:format>image/svg+xml</dc:format>
        <dc:type
           rdf:resource="http://purl.org/dc/dcmitype/StillImage" />
        <dc:title>DDB80350-E3D3-4184-AEB2-C93B789A0BC1@1,5x</dc:title>
      </cc:Work>
    </rdf:RDF>
  </metadata>
  <!-- Generator: sketchtool 61.2 (101010) - https://sketch.com -->
  <title
     id="title4">DDB80350-E3D3-4184-AEB2-C93B789A0BC1@1,5x</title>
  <desc
     id="desc6">Created with sketchtool.</desc>
  <g
     id="g951"
     transform="matrix(1.1828,0,0,1.1828,8.0753938,-0.32927425)"
     style="fill:#a4cd39;fill-opacity:1;fill-rule:evenodd">
    <g
       id="g949"
       transform="translate(-1539,-1831)"
       style="fill:#a4cd39;fill-opacity:1;fill-rule:nonzero">
      <g
         transform="translate(1539,1831)"
         id="iconfinder_Dental_-_Tooth_-_Dentist_-_Dentistry_07_2185084-Copy"
         style="fill:#a4cd39;fill-opacity:1">
        <g
           id="g944"
           transform="translate(0,0.26316)"
           style="fill:#a4cd39;fill-opacity:1">
          <polygon
             points="16.233,19.544 16.242,21.245 4.8159,21.183 4.807,19.483 "
             transform="rotate(-167.44,10.524,20.364)"
             id="Rectangle"
             style="fill:#a4cd39;fill-opacity:1" />
          <polygon
             id="polygon938"
             points="5.8686,21.69 5.8686,22.969 5.1037,22.794 4.7423,24.455 15.88,27.001 16.241,25.34 15.155,25.092 15.155,23.433 13.496,23.433 13.496,24.711 7.5287,23.347 7.5287,21.69 "
             style="fill:#a4cd39;fill-opacity:1" />
          <path
             id="path940"
             d="M 13.496,28.589 H 7.5291 V 26.2286 H 5.869 v 4.0619 h 0.51689 l 3.5799,3.2236 c 0.15658,0.14167 0.35184,0.21193 0.54747,0.21193 0.19526,0 0.39126,-0.07027 0.5471,-0.21193 l 3.5785,-3.2236 h 0.51616 v -2.3199 h -1.6594 v 0.61842 z m -2.9827,3.1526 -1.6115,-1.4507 h 3.2218 z"
             inkscape:connector-curvature="0"
             style="fill:#a4cd39;fill-opacity:1" />
          <path
             id="path942"
             d="M 20.975,5.6312 C 20.9732,5.593044 20.9709,5.554511 20.9702,5.49218 20.90278,3.62448 20.2282,2.29958 18.8404,1.31698 17.727,0.54669 16.1664,0.12248 14.4459,0.12248 h -0.03868 c -1.3856,0 -2.8376,0.29051 -3.8809,0.7752 L 10.50753,0.905613 10.4939,0.899569 C 9.66863,0.513859 8.5825,0.250929 7.4345,0.158369 l -0.038316,-0.0034 -1.8723,0.0238 -0.084,0.005667 c -1.2858,0.15073 -2.4165,0.54249 -3.276,1.1379 -1.3808,0.97731 -2.0551,2.3029 -2.121,4.2047 -3.6755e-4,0.53644 0.11532,2.5526 1.6174,5.9708 0.74089,1.6856 1.1285,2.9712 1.1325,2.9844 l 0.18016,0.60104 h 1.1395 v 2.9795 h 1.7555 v 2.1088 l 9.2864,2.1212 h 3.68e-4 v -4.23 h 1.7555 v -2.9795 h 1.1185 l 0.18679,-0.58744 c 0.0052,-0.01624 0.51432,-1.6124 1.1222,-2.9637 0.73389,-1.6331 1.5024,-3.5708 1.6376,-5.5533 0.0081,-0.11296 0.005,-0.22818 -3.68e-4,-0.34756 z m -7.4797,14.539 -5.9669,-1.3634 v -0.74384 h 5.9669 z m 1.7555,-3.8088 H 5.7724 V 15.083 h 9.4784 z m 2.5797,-5.5416 c -0.4189,0.93084 -0.7851,1.9422 -0.99768,2.5613 H 4.18382 C 3.99003,12.81368 3.65293,11.89 3.17292,10.7986 1.74272,7.5429 1.70252,5.7247 1.70222,5.5543 1.748641,4.234 2.16901,3.3874 3.10002,2.7281 3.72376,2.29592 4.58292,2.00352 5.58722,1.88074 l 1.7533,-0.022289 c 0.93211,0.078578 1.8296,0.29278 2.4684,0.5916 l 0.34079,0.15678 3.5678,1.9255 c 0.12342,0.066867 0.25495,0.098222 0.38574,0.098222 0.29842,0 0.58689,-0.16547 0.735,-0.45484 0.21368,-0.41593 0.05821,-0.93047 -0.34779,-1.1492 l -1.8834,-1.0162 c 0.57658,-0.11862 1.1988,-0.18624 1.7997,-0.18624 h 0.03868 c 1.3731,0 2.6361,0.32942 3.4587,0.89911 0.93837,0.66338 1.3587,1.5107 1.4063,2.8099 3.68e-4,0.061956 0.0037,0.12164 0.0063,0.18096 0.0022,0.0476 0.007,0.092556 0.0029,0.14242 -0.09321,1.3623 -0.53863,2.8466 -1.4895,4.9632 z"
             inkscape:connector-curvature="0"
             style="fill:#a4cd39;fill-opacity:1" />
        </g>
        <path
           id="path946"
           d="M 4.8689,8.2632 C 4.65649,8.2632 4.44825,8.14279 4.32632,7.92349 3.92075,7.19773 3.89155,6.19719 4.248029,5.24709 c 0.38985,-1.0385 1.131,-1.7744 1.9826,-1.9693 0.35006,-0.07991 0.68729,0.17697 0.7566,0.57214 0.069948,0.39554 -0.1553,0.78122 -0.50344,0.8604 -0.42996,0.098154 -0.83361,0.52398 -1.0537,1.1107 -0.18738,0.49843 -0.19412,1.0042 -0.01861,1.3194 0.19027,0.3408 0.10139,0.7918 -0.19797,1.0085 -0.10749,0.076991 -0.22653,0.11421 -0.34461,0.11421 z"
           inkscape:connector-curvature="0"
           style="fill:#a4cd39;fill-opacity:1" />
      </g>
    </g>
  </g>
</svg>
