<?xml version="1.0" encoding="UTF-8" standalone="no"?>
<svg
   xmlns:dc="http://purl.org/dc/elements/1.1/"
   xmlns:cc="http://creativecommons.org/ns#"
   xmlns:rdf="http://www.w3.org/1999/02/22-rdf-syntax-ns#"
   xmlns:svg="http://www.w3.org/2000/svg"
   xmlns="http://www.w3.org/2000/svg"
   xmlns:sodipodi="http://sodipodi.sourceforge.net/DTD/sodipodi-0.dtd"
   xmlns:inkscape="http://www.inkscape.org/namespaces/inkscape"
   width="40"
   height="22"
   version="1.1"
   viewBox="0 0 40 22"
   id="svg22"
   sodipodi:docname="6.svg"
   inkscape:version="0.92.4 (5da689c313, 2019-01-14)">
  <defs
     id="defs26" />
  <sodipodi:namedview
     pagecolor="#ffffff"
     bordercolor="#666666"
     borderopacity="1"
     objecttolerance="10"
     gridtolerance="10"
     guidetolerance="10"
     inkscape:pageopacity="0"
     inkscape:pageshadow="2"
     inkscape:window-width="1920"
     inkscape:window-height="1001"
     id="namedview24"
     showgrid="false"
     inkscape:zoom="5.9"
     inkscape:cx="20"
     inkscape:cy="20"
     inkscape:window-x="-9"
     inkscape:window-y="1341"
     inkscape:window-maximized="1"
     inkscape:current-layer="svg22" />
  <metadata
     id="metadata2">
    <rdf:RDF>
      <cc:Work
         rdf:about="">
        <dc:format>image/svg+xml</dc:format>
        <dc:type
           rdf:resource="http://purl.org/dc/dcmitype/StillImage" />
        <dc:title>DDB80350-E3D3-4184-AEB2-C93B789A0BC1@1,5x</dc:title>
      </cc:Work>
    </rdf:RDF>
  </metadata>
  <!-- Generator: sketchtool 61.2 (101010) - https://sketch.com -->
  <title
     id="title4">DDB80350-E3D3-4184-AEB2-C93B789A0BC1@1,5x</title>
  <desc
     id="desc6">Created with sketchtool.</desc>
  <g
     style="fill:#a4cd39;fill-opacity:1;fill-rule:evenodd"
     transform="matrix(1.0079904,0,0,1.0079904,-0.17232184,-0.02039886)"
     id="g1012">
    <g
       style="fill:#a4cd39;fill-opacity:1;fill-rule:nonzero"
       id="Desktop-HD-Copy-1"
       transform="translate(-1529,-1688)">
      <g
         style="fill:#a4cd39;fill-opacity:1"
         transform="translate(1529,1688)"
         id="g1009">
        <g
           style="fill:#a4cd39;fill-opacity:1"
           id="Group-8">
          <g
             style="fill:#a4cd39;fill-opacity:1"
             id="Shape-8">
            <path
               style="fill:#a4cd39;fill-opacity:1"
               inkscape:connector-curvature="0"
               d="m 38.844,7.4856 h -1.0708 c 0.12528,-0.54439 0.2044,-1.1962 0.21187,-2.0244 0,-0.074196 -0.0018,-0.14925 -0.0044,-0.22776 l -0.0031,-0.13502 c -0.06063,-1.6164 -0.698,-2.8138 -1.9573,-3.6654 -1.0119,-0.66992 -2.4233,-1.0387 -3.9736,-1.0387 h -0.05143 c -1.2268,0 -2.5125,0.24286 -3.4497,0.64878 C 27.80488,0.72216 26.84574,0.50302 25.83434,0.42451 25.80753,0.422353 25.77984,0.420628 25.7539,0.421922 l -1.6268,0.018549 c -0.03033,4.3138e-4 -0.06154,0.002157 -0.09187,0.005608 -1.1666,0.13114 -2.1925,0.47278 -2.9736,0.99173 -0.42901,0.28988 -0.77978,0.6242 -1.0659,0.99992 -0.28703,-0.37659 -0.64044,-0.71263 -1.0716,-1.0051 -1.0132,-0.66992 -2.4246,-1.0383 -3.9745,-1.0383 H 14.8982 c -1.2251,0 -2.5099,0.24243 -3.4488,0.64835 C 10.70742,0.721739 9.7479,0.503029 8.7378,0.424519 8.710987,0.422362 8.684613,0.420637 8.656921,0.421931 l -1.6259,0.018549 c -0.030769,4.3138e-4 -0.061539,0.002157 -0.091868,0.005608 -1.1662,0.13114 -2.1921,0.47278 -2.9745,0.99129 -1.2527,0.84765 -1.8897,2.0456 -1.9481,3.693 l -0.00264,0.15616 c -0.00132,0.060823 -0.00308,0.11863 -0.00308,0.18075 0.00615,0.82565 0.084396,1.4753 0.20967,2.0188 h -1.0655 c -0.49231,0 -0.89143,0.39169 -0.89143,0.87439 0,0.48314 0.39912,0.87482 0.89143,0.87482 h 1.7499 c 0.076044,0.14106 0.15429,0.27996 0.23297,0.41973 l 0.09978,0.17643 c 0.60967,1.0297 1.2022,2.219 1.1864,4.4185 -0.00484,3.2909 0.62725,5.0264 1.16,5.9051 0.55077,0.90329 0.96659,1.4511 2.0954,1.4511 1.0734,0 1.7029,-0.8882 1.7662,-1.7427 0.04,-0.39729 0.047472,-0.84635 0.055385,-1.3217 0.018022,-1.1017 0.037802,-2.3501 0.44132,-3.6813 0.046593,-0.15874 0.34945,-0.96455 1.4703,-0.91667 1.1398,0.05047 1.5042,0.82349 1.5613,0.96412 0.39341,1.3049 0.56308,2.8125 0.45363,4.0368 -0.08264,0.91753 0.10242,1.6263 0.55033,2.1051 0.48176,0.51678 1.073,0.55647 1.244,0.55647 h 8.79e-4 c 1.0233,0 1.4906,-0.46761 2.0941,-1.4524 0.53055,-0.87525 1.1626,-2.6102 1.16,-5.9072 -0.01319,-2.1961 0.57934,-3.385 1.1982,-4.4319 l 0.09011,-0.1609 c 0.07824,-0.13933 0.15604,-0.2778 0.23209,-0.41843 h 0.0031 c 0.07692,0.14235 0.1556,0.28255 0.2356,0.42318 l 0.09846,0.17255 c 0.60923,1.031 1.2026,2.2198 1.1864,4.419 -0.0035,3.2918 0.62857,5.0264 1.1604,5.9051 0.55209,0.90286 0.96791,1.4507 2.0954,1.4507 1.0716,0 1.7007,-0.8869 1.7666,-1.7427 0.04,-0.39729 0.04659,-0.84678 0.05538,-1.3226 0.01846,-1.1017 0.03868,-2.3497 0.44396,-3.6934 0.01011,-0.03796 0.27165,-0.95808 1.4668,-0.90416 1.1407,0.05047 1.5046,0.82349 1.5618,0.96369 0.39209,1.3027 0.56132,2.8104 0.45319,4.0372 -0.0822,0.91753 0.1033,1.6263 0.55077,2.1051 0.48176,0.51678 1.073,0.55647 1.2431,0.55647 h 8.79e-4 c 1.0259,0 1.4923,-0.46761 2.0958,-1.4529 0.53055,-0.87569 1.1631,-2.6115 1.1613,-5.9076 -0.01451,-2.1935 0.55297,-3.3401 1.196,-4.4311 l 0.08789,-0.15573 c 0.07956,-0.14106 0.1578,-0.28082 0.23472,-0.42318 h 1.7516 c 0.49231,0 0.89143,-0.39169 0.89143,-0.87482 -0.0022,-0.48271 -0.40132,-0.87439 -0.89363,-0.87439 z M 20.893,5.3292 c 0.0013,-0.064274 0.0026,-0.13114 0.0022,-0.16953 0.04835,-1.3394 0.62286,-1.9058 1.1723,-2.2772 0.52923,-0.35071 1.2637,-0.58969 2.1279,-0.69235 L 25.733,2.172434 c 0.80703,0.066431 1.5802,0.24329 2.1327,0.48875 l 0.28615,0.1251 2.1543,1.1233 c 0.13407,0.069451 0.27692,0.1018 0.41758,0.1018 0.32,0 0.62813,-0.1691 0.78813,-0.46416 0.23077,-0.42706 0.06549,-0.95722 -0.36923,-1.1833 l -0.26901,-0.1402 c 0.36923,-0.051333 0.75033,-0.079373 1.1222,-0.079373 h 0.05099 c 1.182,0 2.2664,0.26961 2.9697,0.7342 0.5556,0.37529 1.1292,0.94082 1.1789,2.2682 l 0.004,0.13588 c 0.0013,0.061686 0.0035,0.11992 0.0035,0.17039 -0.0088,0.91624 -0.10681,1.5266 -0.27253,2.0331 h -4.1873 v -1.37 c 0,-0.48314 -0.39912,-0.87482 -0.89099,-0.87482 h -4.5793 c -0.49231,0 -0.89143,0.39169 -0.89143,0.87482 v 1.37 h -4.2211 c -0.16572,-0.50514 -0.26374,-1.1134 -0.27033,-2.0249 z M 27.1646,6.99 h 2.7943 V 9.7331 H 27.1646 Z M 3.7956,5.4599 3.7978,5.32661 C 3.79956,5.262767 3.80088,5.19634 3.80044,5.15924 3.848787,3.81814 4.42285,3.25304 4.97184,2.88204 5.50107,2.5309 6.23644,2.29192 7.09974,2.18926 l 1.5385,-0.017686 c 0.80659,0.066431 1.5802,0.24329 2.1327,0.48875 l 0.28352,0.12424 2.1574,1.1246 c 0.13319,0.069451 0.27648,0.1018 0.41758,0.1018 0.31912,0 0.62769,-0.1691 0.78769,-0.46416 0.23077,-0.42706 0.06506,-0.95722 -0.36923,-1.1833 L 13.77801,2.222874 C 14.14724,2.171109 14.52878,2.14307 14.90061,2.14307 h 0.05143 c 1.1815,0 2.2673,0.26961 2.9697,0.7342 0.55516,0.37529 1.1288,0.94082 1.1789,2.2686 l 0.004,0.15098 c 0.0022,0.050471 0.0044,0.097922 0.0048,0.13976 0,0.010353 -4.39e-4,0.019843 -4.39e-4,0.030196 v 0.011647 c -0.01012,0.90157 -0.10858,1.5055 -0.27298,2.0067 h -4.1873 v -1.37 c 0,-0.48314 -0.39912,-0.87482 -0.89099,-0.87482 h -4.5789 c -0.49231,0 -0.89143,0.39169 -0.89143,0.87482 v 1.37 h -4.222 c -0.16571,-0.50514 -0.2633,-1.1129 -0.26989,-2.0253 z m 9.0699,4.2732 H 10.0703 V 6.99 h 2.7947 v 2.7431 z m 2.356,10.998 v -0.87526 h 8.8e-4 z m 1.473,-6.4801 c 0.0018,3.0468 -0.56879,4.4444 -0.90725,5.0026 -0.29934,0.48831 -0.41275,0.58451 -0.42066,0.59357 -0.0026,0.0013 -0.02286,0.006 -0.08264,0.0078 -0.03165,-0.04918 -0.12615,-0.24373 -0.08044,-0.75706 0.13099,-1.4641 -0.06242,-3.1831 -0.53802,-4.7447 -0.02769,-0.08369 -0.7244,-2.0499 -3.1723,-2.1582 -2.1319,-0.09792 -3.0686,1.427 -3.2659,2.1853 -0.46769,1.5422 -0.49099,2.9782 -0.50989,4.1325 -0.00791,0.45769 -0.013626,0.85282 -0.048791,1.1996 -0.00308,0.04529 -0.021978,0.10353 -0.04044,0.14278 -0.052747,-0.0013 -0.083516,-0.0039 -0.10154,-0.006 -0.049228,-0.04623 -0.16175,-0.1847 -0.41186,-0.59192 -0.34066,-0.56294 -0.91209,-1.9615 -0.90857,-5.0013 0.018462,-2.4403 -0.61978,-3.8927 -1.2629,-5.022 h 3.3437 v 1.3731 c 0,0.48314 0.39912,0.87482 0.89143,0.87482 h 4.578 c 0.49187,0 0.89099,-0.39169 0.89099,-0.87482 v -1.3731 h 3.3108 c -0.64703,1.1401 -1.2796,2.59 -1.2637,5.0169 z m 15.622,6.4801 v -0.87526 h 8.8e-4 z m 1.4734,-6.4796 c 0.0022,3.0455 -0.56967,4.444 -0.90857,5.0039 -0.29802,0.48659 -0.41143,0.58365 -0.4189,0.59227 -0.0026,0.0013 -0.02286,0.0056 -0.08264,0.0078 -0.03209,-0.04961 -0.12571,-0.24459 -0.08,-0.75792 0.12923,-1.4662 -0.06418,-3.1861 -0.53846,-4.7438 -0.02857,-0.08326 -0.72484,-2.0499 -3.1736,-2.1582 -2.1332,-0.09792 -3.0677,1.427 -3.2659,2.1858 -0.46549,1.5413 -0.48967,2.9769 -0.50857,4.1308 -0.007,0.45812 -0.01319,0.85326 -0.04835,1.1988 -0.0035,0.04529 -0.02242,0.10526 -0.04176,0.14451 -0.05187,-0.0013 -0.08308,-0.0039 -0.10066,-0.006 -0.05539,-0.05133 -0.17099,-0.19886 -0.41187,-0.59141 -0.33934,-0.56251 -0.91033,-1.9606 -0.90813,-5.0009 0.0189,-2.4394 -0.61934,-3.8927 -1.2633,-5.0229 h 3.3424 v 1.3731 c 0,0.48314 0.39912,0.87482 0.89143,0.87482 h 4.5785 c 0.49187,0 0.89099,-0.39169 0.89099,-0.87482 v -1.3731 h 3.3103 c -0.64659,1.1423 -1.2796,2.5938 -1.2629,5.0173 z"
               id="path1000" />
          </g>
        </g>
        <g
           style="fill:#a4cd39;fill-opacity:1"
           transform="translate(4,3)"
           id="g1007">
          <path
             style="fill:#a4cd39;fill-opacity:1"
             inkscape:connector-curvature="0"
             id="Path-6"
             d="m 1.7943,0.078429 c -0.7487,0.22671 -1.3135,0.87214 -1.5126,1.7233 -0.096957,0.41614 0.16609,0.831 0.5887,0.92657 0.059565,0.013286 0.11783,0.019714 0.17609,0.019714 0.35696,0 0.67957,-0.24129 0.76348,-0.59914 0.072174,-0.309 0.24,-0.53057 0.44783,-0.59486 0.41348,-0.126 0.64478,-0.55886 0.51696,-0.96643 -0.12783,-0.408 -0.56739,-0.63643 -0.98043,-0.50914 z" />
          <path
             style="fill:#a4cd39;fill-opacity:1"
             inkscape:connector-curvature="0"
             d="m 19.857,0.58757 c -0.12739,-0.408 -0.56957,-0.63557 -0.98087,-0.50914 -0.74783,0.22714 -1.313,0.87171 -1.5126,1.7233 -0.09696,0.41614 0.16565,0.831 0.5887,0.927 0.0587,0.013286 0.11783,0.019714 0.17609,0.019714 0.35696,0 0.67956,-0.24129 0.76391,-0.59871 0.07217,-0.30943 0.23956,-0.531 0.44783,-0.59529 0.41435,-0.12643 0.64565,-0.55929 0.51696,-0.96686 z"
             id="path1005" />
        </g>
      </g>
    </g>
  </g>
</svg>
